%YAML 1.1
%TAG !u! tag:unity3d.com,2011:
--- !u!114 &11400000
MonoBehaviour:
  m_ObjectHideFlags: 0
  m_PrefabParentObject: {fileID: 0}
  m_PrefabInternal: {fileID: 0}
  m_GameObject: {fileID: 0}
  m_Enabled: 1
  m_EditorHideFlags: 0
  m_Script: {fileID: 11500000, guid: 3b28b808200d2469ca2a4eec0b8788db, type: 3}
  m_Name: 2_Theme
  m_EditorClassIdentifier: 
  audioSet: 2
  maxPulseGeneration: 9
  bgSprite: {fileID: 21300000, guid: aa8b15e3cf0d040e797d1f987936dbb8, type: 3}
  bgColor: {r: 1, g: 1, b: 1, a: 1}
  progressColor: {r: 0.38235295, g: 0.34927744, b: 0.32612458, a: 0.053}
  dotSprite: {fileID: 0}
  dotStrange: {r: 0.7647059, g: 0.68559843, b: 0.6297578, a: 1}
  dotConverted: {r: 0.16470589, g: 0.16470589, b: 0.22745098, a: 1}
  pulseSprite: {fileID: 21300000, guid: 0d3e80e682f13451b9bf6c8c503d3b13, type: 3}
  pulseColor: {r: 1, g: 1, b: 1, a: 0.191}
  pulseParticle: {fileID: 0}
